{
  "file_list": [
    "egret/utils/extends.js",
    "egret/utils/Logger.js",
    "egret/utils/HashObject.js",
    "egret/utils/Recycler.js",
    "egret/utils/getTimer.js",
    "egret/utils/callLater.js",
    "egret/utils/RenderCommand.js",
    "egret/events/Event.js",
    "egret/events/HTTPStatusEvent.js",
    "egret/events/SoundEvent.js",
    "egret/events/FocusEvent.js",
    "egret/events/IOErrorEvent.js",
    "egret/events/TouchEvent.js",
    "egret/events/TimerEvent.js",
    "egret/events/TextEvent.js",
    "egret/events/ProgressEvent.js",
    "egret/events/EventPhase.js",
    "egret/events/EventDispatcher.js",
    "egret/context/MainContext.js",
    "egret/utils/Profiler.js",
    "egret/context/Ticker.js",
    "egret/layout/HorizontalAlign.js",
    "egret/layout/VerticalAlign.js",
    "egret/utils/Timer.js",
    "egret/utils/getQualifiedClassName.js",
    "egret/utils/getDefinitionByName.js",
    "egret/utils/setTimeout.js",
    "egret/utils/hasDefinition.js",
    "egret/utils/toColorString.js",
    "egret/geom/Matrix.js",
    "egret/geom/Point.js",
    "egret/geom/Rectangle.js",
    "egret/utils/SAXParser.js",
    "egret/context/StageDelegate.js",
    "egret/context/renderer/RenderFilter.js",
    "egret/utils/Injector.js",
    "egret/filters/Filter.js",
    "egret/filters/BlurFilter.js",
    "egret/display/BlendMode.js",
    "egret/display/DisplayObjectProperties.js",
    "egret/display/DisplayObjectPrivateProperties.js",
    "egret/display/DisplayObject.js",
    "egret/display/DisplayObjectContainer.js",
    "egret/display/StageScaleMode.js",
    "egret/display/Stage.js",
    "egret/display/ScrollViewProperties.js",
    "egret/display/ScrollView.js",
    "egret/display/BitmapFillMode.js",
    "egret/display/Bitmap.js",
    "egret/text/BitmapText.js",
    "egret/display/Graphics.js",
    "egret/display/Shape.js",
    "egret/display/Sprite.js",
    "egret/text/TextFieldUtils.js",
    "egret/text/TextFieldProperties.js",
    "egret/text/TextField.js",
    "egret/text/HtmlTextParser.js",
    "egret/text/TextFieldType.js",
    "egret/display/SpriteSheet.js",
    "egret/text/InputController.js",
    "egret/text/BitmapFont.js",
    "egret/display/MovieClip.js",
    "egret/display/FrameLabel.js",
    "egret/display/MovieClipData.js",
    "egret/display/MovieClipDataFactory.js",
    "egret/context/display/StageText.js",
    "egret/net/URLRequestMethod.js",
    "egret/net/URLLoaderDataFormat.js",
    "egret/net/URLVariables.js",
    "egret/net/URLRequestHeader.js",
    "egret/net/URLRequest.js",
    "egret/net/URLLoader.js",
    "egret/display/Texture.js",
    "egret/display/RenderTexture.js",
    "egret/context/renderer/RendererContext.js",
    "egret/context/interactive/InteractionMode.js",
    "egret/context/interactive/TouchContext.js",
    "egret/context/net/NetContext.js",
    "egret/context/devices/DeviceContext.js",
    "egret/context/external/ExternalInterface.js",
    "egret/context/Browser.js",
    "egret/context/localStorage/localStorage.js",
    "egret/utils/XML.js",
    "egret/utils/ByteArray.js",
    "egret/utils/getOption.js",
    "egret/tween/Tween.js",
    "egret/tween/Ease.js",
    "egret/media/Sound.js",
    "jslib/NumberUtils.js",
    "egret/context/PromiseObject.js"
  ]
}